Train word vectors using the Word2Vec, GloVe, or FastText algorithm. — train_wordvec • PsychWordVec
…
as_tibble(dt1)  # just check
#> # A tibble: 14,205 × 3
#>    word  vec         freq
#>    <chr> <list>     <int>
#>  1 the   <dbl [50]> 58797
#>  2 and   <dbl [50]> 32193
#>  3 a     <dbl [50]> 31783
#>  4 of    <dbl [50]> 29142
#>  5 to    <dbl [50]> 27218
#>  6 is    <dbl [50]> 21447
#>  7 in    <dbl [50]> 17861
#>  8 I     <dbl [50]> 14703
#>  9 that  <dbl [50]> 13618
#> 10 it    <dbl [50]> 13453
#> # … with 14,195 more rows
…
as_tibble(dt2)  # just check
#> # A tibble: 14,207 × 3
#>    word  vec         freq
#>    <chr> <list>     <int>
#>  1 the   <dbl [50]> 58797
#>  2 and   <dbl [50]> 32193
#>  3 a     <dbl [50]> 31783
#>  4 of    <dbl [50]> 29142
#>  5 to    <dbl [50]> 27218
#>  6 is    <dbl [50]> 21447
#>  7 in    <dbl [50]> 17861
#>  8 I     <dbl [50]> 14703
#>  9 that  <dbl [50]> 13618
#> 10 it    <dbl [50]> 13453
#> # … with 14,197 more rows
…
as_tibble(dt3)  # just check
#> # A tibble: 14,207 × 3
#>    word  vec         freq
#>    <chr> <list>     <int>
#>  1 the   <dbl [50]> 58797
#>  2 and   <dbl [50]> 32193
#>  3 a     <dbl [50]> 31783
#>  4 of    <dbl [50]> 29142
#>  5 to    <dbl [50]> 27218
#>  6 is    <dbl [50]> 21447
#>  7 in    <dbl [50]> 17861
#>  8 I     <dbl [50]> 14703
#>  9 that  <dbl [50]> 13618
#> 10 it    <dbl [50]> 13453
#> # … with 14,197 more rows
…
